1.9		0.0980644737	0.1	0.0195297091	2
95.5	4.5336544503	0.1	0.0185273869	2
199.2	8.3151054217	0.1	0.0170959365	2
299		10.4070100334	1	0.0466053847	2
404		10.8846757426	1	0.0373234548	2
543		9.9636758748	1	0.0269165302	2
590		9.5201694915	1	0.0241697788	2
676		8.8143210059	1	0.0202608299	2
763		8.1586173001	1	0.0172327881	2
812		7.8206896552	1	0.0158382878	2
915		7.1848043716	1	0.0134566168	2
1084	6.3276392989	1	0.0106694089	2
1316	5.4252158055	1	0.0081832947	2
1525	4.7980491803	1	0.0066938027	2
358.7	10.9184304433	0.1	0.0140781797	2
447.4	10.6320093876	0.1	0.0121260638	2
1833	4.0184375341	1	0.0051535393	2
2070	3.6853352657	1	0.0044489542	2
3089	2.5653043056	1	0.0026530606	2
68.2	3.336202346		0.1	0.0188800621	2
